ffmpeg version 4.2.2 Copyright (c) 2000-2019 the FFmpeg developers
  built with gcc 9.2.1 (GCC) 20200122
  configuration: --enable-gpl --enable-version3 --enable-sdl2 --enable-fontconfig --enable-gnutls --enable-iconv --enable-libass --enable-libdav1d --enable-libbluray --enable-libfreetype --enable-libmp3lame --enable-libopencore-amrnb --enable-libopencore-amrwb --enable-libopenjpeg --enable-libopus --enable-libshine --enable-libsnappy --enable-libsoxr --enable-libtheora --enable-libtwolame --enable-libvpx --enable-libwavpack --enable-libwebp --enable-libx264 --enable-libx265 --enable-libxml2 --enable-libzimg --enable-lzma --enable-zlib --enable-gmp --enable-libvidstab --enable-libvorbis --enable-libvo-amrwbenc --enable-libmysofa --enable-libspeex --enable-libxvid --enable-libaom --enable-libmfx --enable-amf --enable-ffnvcodec --enable-cuvid --enable-d3d11va --enable-nvenc --enable-nvdec --enable-dxva2 --enable-avisynth --enable-libopenmpt
  libavutil      56. 31.100 / 56. 31.100
  libavcodec     58. 54.100 / 58. 54.100
  libavformat    58. 29.100 / 58. 29.100
  libavdevice    58.  8.100 / 58.  8.100
  libavfilter     7. 57.100 /  7. 57.100
  libswscale      5.  5.100 /  5.  5.100
  libswresample   3.  5.100 /  3.  5.100
  libpostproc    55.  5.100 / 55.  5.100
Splitting the commandline.
Reading option '-v' ... matched as option 'v' (set logging level) with argument 'debug'.
Reading option '-nostdin' ... matched as option 'stdin' (enable or disable interaction on standard input) with argument 0.
Reading option '-progress' ... matched as option 'progress' (write program-readable progress information) with argument 'C:/Users/Nathaelle/AppData/Local/Temp/KritaFFmpegProgress.NkqZTt'.
Reading option '-r' ... matched as option 'r' (set frame rate (Hz value, fraction or abbreviation)) with argument '20'.
Reading option '-start_number' ... matched as AVOption 'start_number' with argument '0'.
Reading option '-i' ... matched as input url with argument 'D:/ESADHaR 2DG/info/gitexquis/Josephine Liberge/frame%04d.png'.
Reading option '-vf' ... matched as option 'vf' (set video filters) with argument 'palettegen'.
Reading option '-y' ... matched as option 'y' (overwrite output files) with argument '1'.
Reading option 'D:/ESADHaR 2DG/info/gitexquis/Josephine Liberge/palette.png' ... matched as output url.
Finished splitting the commandline.
Parsing a group of options: global .
Applying option v (set logging level) with argument debug.
Applying option nostdin (enable or disable interaction on standard input) with argument 0.
Applying option progress (write program-readable progress information) with argument C:/Users/Nathaelle/AppData/Local/Temp/KritaFFmpegProgress.NkqZTt.
[file @ 000001d16015aa00] Setting default whitelist 'file,crypto'
Applying option y (overwrite output files) with argument 1.
Successfully parsed a group of options.
Parsing a group of options: input url D:/ESADHaR 2DG/info/gitexquis/Josephine Liberge/frame%04d.png.
Applying option r (set frame rate (Hz value, fraction or abbreviation)) with argument 20.
Successfully parsed a group of options.
Opening an input file: D:/ESADHaR 2DG/info/gitexquis/Josephine Liberge/frame%04d.png.
[image2 @ 000001d16019b580] Opening 'D:/ESADHaR 2DG/info/gitexquis/Josephine Liberge/frame0000.png' for reading
[file @ 000001d16019ecc0] Setting default whitelist 'file,crypto'
[AVIOContext @ 000001d1601a6e80] Statistics: 122524 bytes read, 0 seeks
[image2 @ 000001d16019b580] Opening 'D:/ESADHaR 2DG/info/gitexquis/Josephine Liberge/frame0001.png' for reading
[file @ 000001d1601c5040] Setting default whitelist 'file,crypto'
[AVIOContext @ 000001d1601c51c0] Statistics: 122524 bytes read, 0 seeks
[image2 @ 000001d16019b580] Opening 'D:/ESADHaR 2DG/info/gitexquis/Josephine Liberge/frame0002.png' for reading
[file @ 000001d1601c5100] Setting default whitelist 'file,crypto'
[AVIOContext @ 000001d1601f6940] Statistics: 102340 bytes read, 0 seeks
[image2 @ 000001d16019b580] Opening 'D:/ESADHaR 2DG/info/gitexquis/Josephine Liberge/frame0003.png' for reading
[file @ 000001d1601c5100] Setting default whitelist 'file,crypto'
[AVIOContext @ 000001d16020fb80] Statistics: 102340 bytes read, 0 seeks
[image2 @ 000001d16019b580] Opening 'D:/ESADHaR 2DG/info/gitexquis/Josephine Liberge/frame0004.png' for reading
[file @ 000001d1601c5100] Setting default whitelist 'file,crypto'
[AVIOContext @ 000001d16019ee40] Statistics: 105515 bytes read, 0 seeks
[image2 @ 000001d16019b580] Opening 'D:/ESADHaR 2DG/info/gitexquis/Josephine Liberge/frame0005.png' for reading
[file @ 000001d160b29dc0] Setting default whitelist 'file,crypto'
[AVIOContext @ 000001d160b29ec0] Statistics: 105515 bytes read, 0 seeks
[image2 @ 000001d16019b580] Opening 'D:/ESADHaR 2DG/info/gitexquis/Josephine Liberge/frame0006.png' for reading
[file @ 000001d160b29dc0] Setting default whitelist 'file,crypto'
[AVIOContext @ 000001d160b43dc0] Statistics: 127283 bytes read, 0 seeks
[image2 @ 000001d16019b580] Opening 'D:/ESADHaR 2DG/info/gitexquis/Josephine Liberge/frame0007.png' for reading
[file @ 000001d160b29dc0] Setting default whitelist 'file,crypto'
[AVIOContext @ 000001d16019eec0] Statistics: 127283 bytes read, 0 seeks
[image2 @ 000001d16019b580] Opening 'D:/ESADHaR 2DG/info/gitexquis/Josephine Liberge/frame0008.png' for reading
[file @ 000001d160b29dc0] Setting default whitelist 'file,crypto'
[AVIOContext @ 000001d16019f080] Statistics: 163110 bytes read, 0 seeks
[image2 @ 000001d16019b580] Opening 'D:/ESADHaR 2DG/info/gitexquis/Josephine Liberge/frame0009.png' for reading
[file @ 000001d160b29dc0] Setting default whitelist 'file,crypto'
[AVIOContext @ 000001d16019f240] Statistics: 163110 bytes read, 0 seeks
[image2 @ 000001d16019b580] Opening 'D:/ESADHaR 2DG/info/gitexquis/Josephine Liberge/frame0010.png' for reading
[file @ 000001d160b29dc0] Setting default whitelist 'file,crypto'
[AVIOContext @ 000001d16019fc00] Statistics: 138333 bytes read, 0 seeks
[image2 @ 000001d16019b580] Opening 'D:/ESADHaR 2DG/info/gitexquis/Josephine Liberge/frame0011.png' for reading
[file @ 000001d16019fc00] Setting default whitelist 'file,crypto'
[AVIOContext @ 000001d16019fd00] Statistics: 138333 bytes read, 0 seeks
[image2 @ 000001d16019b580] Opening 'D:/ESADHaR 2DG/info/gitexquis/Josephine Liberge/frame0012.png' for reading
[file @ 000001d16019fc00] Setting default whitelist 'file,crypto'
[AVIOContext @ 000001d16019fd00] Statistics: 111636 bytes read, 0 seeks
[image2 @ 000001d16019b580] Opening 'D:/ESADHaR 2DG/info/gitexquis/Josephine Liberge/frame0013.png' for reading
[file @ 000001d16019fc00] Setting default whitelist 'file,crypto'
[AVIOContext @ 000001d16019fd00] Statistics: 111636 bytes read, 0 seeks
[image2 @ 000001d16019b580] Opening 'D:/ESADHaR 2DG/info/gitexquis/Josephine Liberge/frame0014.png' for reading
[file @ 000001d16019fc00] Setting default whitelist 'file,crypto'
[AVIOContext @ 000001d16019fd00] Statistics: 121290 bytes read, 0 seeks
[image2 @ 000001d16019b580] Opening 'D:/ESADHaR 2DG/info/gitexquis/Josephine Liberge/frame0015.png' for reading
[file @ 000001d16019fc00] Setting default whitelist 'file,crypto'
[AVIOContext @ 000001d16019fd00] Statistics: 121290 bytes read, 0 seeks
[image2 @ 000001d16019b580] Opening 'D:/ESADHaR 2DG/info/gitexquis/Josephine Liberge/frame0016.png' for reading
[file @ 000001d16019fc00] Setting default whitelist 'file,crypto'
[AVIOContext @ 000001d16019fd00] Statistics: 123455 bytes read, 0 seeks
[image2 @ 000001d16019b580] Opening 'D:/ESADHaR 2DG/info/gitexquis/Josephine Liberge/frame0017.png' for reading
[file @ 000001d16019fc00] Setting default whitelist 'file,crypto'
[AVIOContext @ 000001d16019fd00] Statistics: 123455 bytes read, 0 seeks
[image2 @ 000001d16019b580] Opening 'D:/ESADHaR 2DG/info/gitexquis/Josephine Liberge/frame0018.png' for reading
[file @ 000001d16019fc00] Setting default whitelist 'file,crypto'
[AVIOContext @ 000001d16019fd00] Statistics: 120614 bytes read, 0 seeks
[image2 @ 000001d16019b580] Opening 'D:/ESADHaR 2DG/info/gitexquis/Josephine Liberge/frame0019.png' for reading
[file @ 000001d16019fc00] Setting default whitelist 'file,crypto'
[AVIOContext @ 000001d16019fd00] Statistics: 120614 bytes read, 0 seeks
[image2 @ 000001d16019b580] Opening 'D:/ESADHaR 2DG/info/gitexquis/Josephine Liberge/frame0020.png' for reading
[file @ 000001d16019fc00] Setting default whitelist 'file,crypto'
[AVIOContext @ 000001d16019fd00] Statistics: 107843 bytes read, 0 seeks
[image2 @ 000001d16019b580] Opening 'D:/ESADHaR 2DG/info/gitexquis/Josephine Liberge/frame0021.png' for reading
[file @ 000001d16019fc00] Setting default whitelist 'file,crypto'
[AVIOContext @ 000001d16019fd00] Statistics: 107843 bytes read, 0 seeks
[image2 @ 000001d16019b580] Opening 'D:/ESADHaR 2DG/info/gitexquis/Josephine Liberge/frame0022.png' for reading
[file @ 000001d16019fc00] Setting default whitelist 'file,crypto'
[AVIOContext @ 000001d16019fd00] Statistics: 127152 bytes read, 0 seeks
[image2 @ 000001d16019b580] Opening 'D:/ESADHaR 2DG/info/gitexquis/Josephine Liberge/frame0023.png' for reading
[file @ 000001d16019fc00] Setting default whitelist 'file,crypto'
[AVIOContext @ 000001d16019fd00] Statistics: 127152 bytes read, 0 seeks
[image2 @ 000001d16019b580] Opening 'D:/ESADHaR 2DG/info/gitexquis/Josephine Liberge/frame0024.png' for reading
[file @ 000001d16019fc00] Setting default whitelist 'file,crypto'
[AVIOContext @ 000001d16019fd00] Statistics: 164478 bytes read, 0 seeks
[image2 @ 000001d16019b580] Opening 'D:/ESADHaR 2DG/info/gitexquis/Josephine Liberge/frame0025.png' for reading
[file @ 000001d16019fc00] Setting default whitelist 'file,crypto'
[AVIOContext @ 000001d16019fd00] Statistics: 164478 bytes read, 0 seeks
[image2 @ 000001d16019b580] Opening 'D:/ESADHaR 2DG/info/gitexquis/Josephine Liberge/frame0026.png' for reading
[file @ 000001d16019fc00] Setting default whitelist 'file,crypto'
[AVIOContext @ 000001d1601a69c0] Statistics: 141022 bytes read, 0 seeks
[image2 @ 000001d16019b580] Opening 'D:/ESADHaR 2DG/info/gitexquis/Josephine Liberge/frame0027.png' for reading
[file @ 000001d1601a69c0] Setting default whitelist 'file,crypto'
[AVIOContext @ 000001d1601a6ac0] Statistics: 141022 bytes read, 0 seeks
[image2 @ 000001d16019b580] Opening 'D:/ESADHaR 2DG/info/gitexquis/Josephine Liberge/frame0028.png' for reading
[file @ 000001d1601a69c0] Setting default whitelist 'file,crypto'
[AVIOContext @ 000001d1601a6ac0] Statistics: 110972 bytes read, 0 seeks
[image2 @ 000001d16019b580] Opening 'D:/ESADHaR 2DG/info/gitexquis/Josephine Liberge/frame0029.png' for reading
[file @ 000001d1601a69c0] Setting default whitelist 'file,crypto'
[AVIOContext @ 000001d1601a6ac0] Statistics: 110972 bytes read, 0 seeks
[image2 @ 000001d16019b580] Opening 'D:/ESADHaR 2DG/info/gitexquis/Josephine Liberge/frame0030.png' for reading
[file @ 000001d1601a69c0] Setting default whitelist 'file,crypto'
[AVIOContext @ 000001d1601a6ac0] Statistics: 121859 bytes read, 0 seeks
[image2 @ 000001d16019b580] Opening 'D:/ESADHaR 2DG/info/gitexquis/Josephine Liberge/frame0031.png' for reading
[file @ 000001d1601a69c0] Setting default whitelist 'file,crypto'
[AVIOContext @ 000001d1601a6ac0] Statistics: 121859 bytes read, 0 seeks
[image2 @ 000001d16019b580] Opening 'D:/ESADHaR 2DG/info/gitexquis/Josephine Liberge/frame0032.png' for reading
[file @ 000001d1601a69c0] Setting default whitelist 'file,crypto'
[AVIOContext @ 000001d1601a6ac0] Statistics: 125365 bytes read, 0 seeks
[image2 @ 000001d16019b580] Opening 'D:/ESADHaR 2DG/info/gitexquis/Josephine Liberge/frame0033.png' for reading
[file @ 000001d1601a69c0] Setting default whitelist 'file,crypto'
[AVIOContext @ 000001d1601a6ac0] Statistics: 125365 bytes read, 0 seeks
[image2 @ 000001d16019b580] Opening 'D:/ESADHaR 2DG/info/gitexquis/Josephine Liberge/frame0034.png' for reading
[file @ 000001d1601a69c0] Setting default whitelist 'file,crypto'
[AVIOContext @ 000001d1601a6ac0] Statistics: 122396 bytes read, 0 seeks
[image2 @ 000001d16019b580] Opening 'D:/ESADHaR 2DG/info/gitexquis/Josephine Liberge/frame0035.png' for reading
[file @ 000001d1601a69c0] Setting default whitelist 'file,crypto'
[AVIOContext @ 000001d1601a6ac0] Statistics: 122396 bytes read, 0 seeks
[image2 @ 000001d16019b580] Opening 'D:/ESADHaR 2DG/info/gitexquis/Josephine Liberge/frame0036.png' for reading
[file @ 000001d1601a69c0] Setting default whitelist 'file,crypto'
[AVIOContext @ 000001d1601a6ac0] Statistics: 106884 bytes read, 0 seeks
[image2 @ 000001d16019b580] Opening 'D:/ESADHaR 2DG/info/gitexquis/Josephine Liberge/frame0037.png' for reading
[file @ 000001d1601a69c0] Setting default whitelist 'file,crypto'
[AVIOContext @ 000001d1601a6ac0] Statistics: 106884 bytes read, 0 seeks
[image2 @ 000001d16019b580] Opening 'D:/ESADHaR 2DG/info/gitexquis/Josephine Liberge/frame0038.png' for reading
[file @ 000001d1601a69c0] Setting default whitelist 'file,crypto'
[AVIOContext @ 000001d1601a6ac0] Statistics: 126617 bytes read, 0 seeks
[image2 @ 000001d16019b580] Opening 'D:/ESADHaR 2DG/info/gitexquis/Josephine Liberge/frame0039.png' for reading
[file @ 000001d1601a69c0] Setting default whitelist 'file,crypto'
[AVIOContext @ 000001d1601a6ac0] Statistics: 126617 bytes read, 0 seeks
[image2 @ 000001d16019b580] Opening 'D:/ESADHaR 2DG/info/gitexquis/Josephine Liberge/frame0040.png' for reading
[file @ 000001d1601a69c0] Setting default whitelist 'file,crypto'
[AVIOContext @ 000001d1601a6ac0] Statistics: 163018 bytes read, 0 seeks
[image2 @ 000001d16019b580] Probe buffer size limit of 5000000 bytes reached
Input #0, image2, from 'D:/ESADHaR 2DG/info/gitexquis/Josephine Liberge/frame%04d.png':
  Duration: 00:00:01.84, start: 0.000000, bitrate: N/A
    Stream #0:0, 41, 1/25: Video: png, 1 reference frame, rgba64be(pc), 1920x604 [SAR 11811:11811 DAR 480:151], 0/1, 25 fps, 25 tbr, 25 tbn, 25 tbc
Successfully opened the file.
Parsing a group of options: output url D:/ESADHaR 2DG/info/gitexquis/Josephine Liberge/palette.png.
Applying option vf (set video filters) with argument palettegen.
Successfully parsed a group of options.
Opening an output file: D:/ESADHaR 2DG/info/gitexquis/Josephine Liberge/palette.png.
Successfully opened the file.
detected 4 logical cores
Stream mapping:
  Stream #0:0 -> #0:0 (png (native) -> png (native))
cur_dts is invalid st:0 (0) [init:0 i_done:0 finish:0] (this is harmless if it occurs once at the start per stream)
    Last message repeated 4 times
[graph 0 input from stream 0:0 @ 000001d16020fb00] Setting 'video_size' to value '1920x604'
[graph 0 input from stream 0:0 @ 000001d16020fb00] Setting 'pix_fmt' to value '106'
[graph 0 input from stream 0:0 @ 000001d16020fb00] Setting 'time_base' to value '1/20'
[graph 0 input from stream 0:0 @ 000001d16020fb00] Setting 'pixel_aspect' to value '11811/11811'
[graph 0 input from stream 0:0 @ 000001d16020fb00] Setting 'sws_param' to value 'flags=2'
[graph 0 input from stream 0:0 @ 000001d16020fb00] Setting 'frame_rate' to value '20/1'
[graph 0 input from stream 0:0 @ 000001d16020fb00] w:1920 h:604 pixfmt:rgba64be tb:1/20 fr:20/1 sar:11811/11811 sws_param:flags=2
[format @ 000001d160d02d00] Setting 'pix_fmts' to value 'rgb24|rgba|rgb48be|rgba64be|pal8|gray|ya8|gray16be|ya16be|monob'
[auto_scaler_0 @ 000001d160fbe600] Setting 'flags' to value 'bicubic'
[auto_scaler_0 @ 000001d160fbe600] w:iw h:ih flags:'bicubic' interl:0
[Parsed_palettegen_0 @ 000001d1601f6900] auto-inserting filter 'auto_scaler_0' between the filter 'graph 0 input from stream 0:0' and the filter 'Parsed_palettegen_0'
[auto_scaler_1 @ 000001d160fbf500] Setting 'flags' to value 'bicubic'
[auto_scaler_1 @ 000001d160fbf500] w:iw h:ih flags:'bicubic' interl:0
[format @ 000001d160d02d00] auto-inserting filter 'auto_scaler_1' between the filter 'Parsed_palettegen_0' and the filter 'format'
[AVFilterGraph @ 000001d16022a9c0] query_formats: 4 queried, 1 merged, 2 already done, 0 delayed
[auto_scaler_1 @ 000001d160fbf500] picking rgba out of 10 ref:bgra alpha:1
[swscaler @ 000001d161069f40] Forcing full internal H chroma due to input having non subsampled chroma
[auto_scaler_0 @ 000001d160fbe600] w:1920 h:604 fmt:rgba64be sar:11811/11811 -> w:1920 h:604 fmt:bgra sar:1/1 flags:0x4
[swscaler @ 000001d1610b36c0] Forcing full internal H chroma due to input having non subsampled chroma
[auto_scaler_1 @ 000001d160fbf500] w:16 h:16 fmt:bgra sar:1/1 -> w:16 h:16 fmt:rgba sar:1/1 flags:0x4
Output #0, image2, to 'D:/ESADHaR 2DG/info/gitexquis/Josephine Liberge/palette.png':
  Metadata:
    encoder         : Lavf58.29.100
    Stream #0:0, 0, 1/20: Video: png, 1 reference frame, rgba, 16x16 [SAR 1:1 DAR 1:1], 0/1, q=2-31, 200 kb/s, 20 fps, 20 tbn, 20 tbc
    Metadata:
      encoder         : Lavc58.54.100 png
cur_dts is invalid st:0 (0) [init:1 i_done:0 finish:0] (this is harmless if it occurs once at the start per stream)
    Last message repeated 1 times
frame=    0 fps=0.0 q=0.0 size=N/A time=00:00:00.00 bitrate=N/A speed=   0x    cur_dts is invalid st:0 (0) [init:1 i_done:0 finish:0] (this is harmless if it occurs once at the start per stream)
    Last message repeated 4 times
frame=    0 fps=0.0 q=0.0 size=N/A time=00:00:00.00 bitrate=N/A speed=   0x    cur_dts is invalid st:0 (0) [init:1 i_done:0 finish:0] (this is harmless if it occurs once at the start per stream)
    Last message repeated 4 times
frame=    0 fps=0.0 q=0.0 size=N/A time=00:00:00.00 bitrate=N/A speed=   0x    cur_dts is invalid st:0 (0) [init:1 i_done:0 finish:0] (this is harmless if it occurs once at the start per stream)
    Last message repeated 4 times
frame=    0 fps=0.0 q=0.0 size=N/A time=00:00:00.00 bitrate=N/A speed=   0x    cur_dts is invalid st:0 (0) [init:1 i_done:0 finish:0] (this is harmless if it occurs once at the start per stream)
    Last message repeated 4 times
frame=    0 fps=0.0 q=0.0 size=N/A time=00:00:00.00 bitrate=N/A speed=   0x    cur_dts is invalid st:0 (0) [init:1 i_done:0 finish:0] (this is harmless if it occurs once at the start per stream)
    Last message repeated 4 times
frame=    0 fps=0.0 q=0.0 size=N/A time=00:00:00.00 bitrate=N/A speed=   0x    cur_dts is invalid st:0 (0) [init:1 i_done:0 finish:0] (this is harmless if it occurs once at the start per stream)
    Last message repeated 4 times
frame=    0 fps=0.0 q=0.0 size=N/A time=00:00:00.00 bitrate=N/A speed=   0x    cur_dts is invalid st:0 (0) [init:1 i_done:0 finish:0] (this is harmless if it occurs once at the start per stream)
    Last message repeated 4 times
[image2 @ 000001d16019b580] Opening 'D:/ESADHaR 2DG/info/gitexquis/Josephine Liberge/frame0041.png' for reading
[file @ 000001d160d060c0] Setting default whitelist 'file,crypto'
[AVIOContext @ 000001d1610dee00] Statistics: 163018 bytes read, 0 seeks
frame=    0 fps=0.0 q=0.0 size=N/A time=00:00:00.00 bitrate=N/A speed=   0x    cur_dts is invalid st:0 (0) [init:1 i_done:0 finish:0] (this is harmless if it occurs once at the start per stream)
[image2 @ 000001d16019b580] Opening 'D:/ESADHaR 2DG/info/gitexquis/Josephine Liberge/frame0042.png' for reading
[file @ 000001d160d05b40] Setting default whitelist 'file,crypto'
[AVIOContext @ 000001d1610de8c0] Statistics: 140473 bytes read, 0 seeks
cur_dts is invalid st:0 (0) [init:1 i_done:0 finish:0] (this is harmless if it occurs once at the start per stream)
[image2 @ 000001d16019b580] Opening 'D:/ESADHaR 2DG/info/gitexquis/Josephine Liberge/frame0043.png' for reading
[file @ 000001d160d05940] Setting default whitelist 'file,crypto'
[AVIOContext @ 000001d1610de780] Statistics: 140473 bytes read, 0 seeks
cur_dts is invalid st:0 (0) [init:1 i_done:0 finish:0] (this is harmless if it occurs once at the start per stream)
[image2 @ 000001d16019b580] Opening 'D:/ESADHaR 2DG/info/gitexquis/Josephine Liberge/frame0044.png' for reading
[file @ 000001d160d05fc0] Setting default whitelist 'file,crypto'
[AVIOContext @ 000001d1610decc0] Statistics: 104765 bytes read, 0 seeks
cur_dts is invalid st:0 (0) [init:1 i_done:0 finish:0] (this is harmless if it occurs once at the start per stream)
[image2 @ 000001d16019b580] Opening 'D:/ESADHaR 2DG/info/gitexquis/Josephine Liberge/frame0045.png' for reading
[file @ 000001d160d05fc0] Setting default whitelist 'file,crypto'
[AVIOContext @ 000001d1610de780] Statistics: 104765 bytes read, 0 seeks
cur_dts is invalid st:0 (0) [init:1 i_done:0 finish:0] (this is harmless if it occurs once at the start per stream)
frame=    0 fps=0.0 q=0.0 size=N/A time=00:00:00.00 bitrate=N/A speed=   0x    cur_dts is invalid st:0 (0) [init:1 i_done:0 finish:0] (this is harmless if it occurs once at the start per stream)
    Last message repeated 3 times
[Parsed_palettegen_0 @ 000001d1601f6900] 255(+1) colors generated out of 14793 colors; ratio=0.017238
[Parsed_palettegen_0 @ 000001d1601f6900] Dupped color: FFEA0000
    Last message repeated 3 times
[Parsed_palettegen_0 @ 000001d1601f6900] Dupped color: FFEA0200
[Parsed_palettegen_0 @ 000001d1601f6900] Dupped color: FFEA2300
[Parsed_palettegen_0 @ 000001d1601f6900] Dupped color: FFEC0000
[Parsed_palettegen_0 @ 000001d1601f6900] Dupped color: FFEC4400
[Parsed_palettegen_0 @ 000001d1601f6900] Dupped color: FFEC4D00
[Parsed_palettegen_0 @ 000001d1601f6900] Dupped color: FFEC4E00
[Parsed_palettegen_0 @ 000001d1601f6900] Dupped color: FFEC5000
[Parsed_palettegen_0 @ 000001d1601f6900] Dupped color: FFEC5B00
[Parsed_palettegen_0 @ 000001d1601f6900] Dupped color: FFED5D00
    Last message repeated 5 times
[Parsed_palettegen_0 @ 000001d1601f6900] Dupped color: FFED5E00
    Last message repeated 1 times
[Parsed_palettegen_0 @ 000001d1601f6900] Dupped color: FFED6000
[Parsed_palettegen_0 @ 000001d1601f6900] Dupped color: FFED6200
[Parsed_palettegen_0 @ 000001d1601f6900] Dupped color: FFED6300
    Last message repeated 1 times
[Parsed_palettegen_0 @ 000001d1601f6900] Dupped color: FFED6700
[Parsed_palettegen_0 @ 000001d1601f6900] Dupped color: FFEE7100
[Parsed_palettegen_0 @ 000001d1601f6900] Dupped color: FFEE7400
[Parsed_palettegen_0 @ 000001d1601f6900] Dupped color: FFFFF100
[Parsed_palettegen_0 @ 000001d1601f6900] Dupped color: FFFFF800
    Last message repeated 6 times
cur_dts is invalid st:0 (0) [init:1 i_done:0 finish:0] (this is harmless if it occurs once at the start per stream)
Clipping frame in rate conversion by 0.000008
cur_dts is invalid st:0 (0) [init:1 i_done:0 finish:0] (this is harmless if it occurs once at the start per stream)
[out_0_0 @ 000001d160d02c00] EOF on sink link out_0_0:default.
No more output streams to write to, finishing.
[image2 @ 000001d16019dc40] Opening 'D:/ESADHaR 2DG/info/gitexquis/Josephine Liberge/palette.png' for writing
[file @ 000001d160d05f00] Setting default whitelist 'file,crypto'
[AVIOContext @ 000001d1610dfc80] Statistics: 0 seeks, 1 writeouts
frame=    1 fps=0.2 q=-0.0 Lsize=N/A time=00:00:00.05 bitrate=N/A speed=0.00931x    
[AVIOContext @ 000001d16019b440] Statistics: 0 seeks, 10 writeouts
video:1kB audio:0kB subtitle:0kB other streams:0kB global headers:0kB muxing overhead: unknown
Input file #0 (D:/ESADHaR 2DG/info/gitexquis/Josephine Liberge/frame%04d.png):
  Input stream #0:0 (video): 46 packets read (5797888 bytes); 46 frames decoded; 
  Total: 46 packets (5797888 bytes) demuxed
Output file #0 (D:/ESADHaR 2DG/info/gitexquis/Josephine Liberge/palette.png):
  Output stream #0:0 (video): 1 frames encoded; 1 packets muxed (692 bytes); 
  Total: 1 packets (692 bytes) muxed
46 frames successfully decoded, 0 decoding errors
